// Jest Snapshot v1, https://goo.gl/fbAQLP

exports[`<AccountStatistics /> render() renders the component 1`] = `
<Jss(Box)
  align="center"
  className="AccountStatistics-wrapper-0-1-1"
  direction="row"
  justify="center"
>
  <div
    className="AccountStatistics-text-0-1-2"
  >
    <Jss(Paragraph)
      align="right"
      className={null}
      color={null}
      font={null}
      margin={null}
      opacity={null}
      size={2}
      style={Object {}}
      upperCase={false}
      weight={null}
    >
      <b>
        £100.00
      </b>
      <br />
      <span>
        total sent
      </span>
    </Jss(Paragraph)>
  </div>
  <div
    className="AccountStatistics-circle-0-1-3"
  >
    <Circle
      animate={true}
      animationDuration="0.45s"
      bgColor="#EDEDF0"
      lineWidth={50}
      percentSpacing={10}
      progress={90.9090909090909}
      progressColor="#FFBD2D"
      responsive={true}
      roundedStroke={false}
      showPercentage={false}
      showPercentageSymbol={false}
      size={50}
      textColor="#6b778c"
      textStyle={
        Object {
          "font": "bold 4rem Helvetica, Arial, sans-serif",
        }
      }
    />
  </div>
  <div
    className="AccountStatistics-text-0-1-2"
  >
    <Jss(Paragraph)
      align="left"
      className={null}
      color={null}
      font={null}
      margin={null}
      opacity={null}
      size={2}
      style={Object {}}
      upperCase={false}
      weight={null}
    >
      <b>
        £1,000.00
      </b>
       
      <br />
      <span>
        left available
      </span>
    </Jss(Paragraph)>
  </div>
</Jss(Box)>
`;
