// Jest Snapshot v1, https://goo.gl/fbAQLP

exports[`<Box /> render() renders the component correctly 1`] = `
<div
  className="Box-wrapper-0-1-1 Box-alignStart-0-1-2 Box-dirRow-0-1-5 Box-jusStart-0-1-12"
/>
`;
