// Jest Snapshot v1, https://goo.gl/fbAQLP

exports[`<Heading /> render() renders the component correctly 1`] = `
<h2
  className="Heading-wrapper-0-1-1 Heading-size_2-0-1-3"
  style={Object {}}
>
  Test
</h2>
`;
