// Jest Snapshot v1, https://goo.gl/fbAQLP

exports[`<Header /> render() renders the component correctly 1`] = `
<div
  className="Header-wrapper-0-1-1"
>
  <Jss(Container)
    offset="small"
    type="default"
  >
    <Jss(Box)
      align="center"
      direction="row"
      justify="between"
    >
      <div>
        <Jss(Paragraph)
          align={null}
          className={null}
          color={null}
          font={null}
          id="user-name"
          margin={null}
          opacity={null}
          size={2}
          style={Object {}}
          upperCase={false}
          weight={null}
        >
          Hello,
           
          John Doe
        </Jss(Paragraph)>
      </div>
      <div>
        <Jss(Box)
          align="center"
          direction="row"
          justify="between"
        >
          <Jss(Link)
            className="Header-logout-0-1-3"
            color="#D6061E"
            to="/logout"
          >
            Log Out
          </Jss(Link)>
        </Jss(Box)>
      </div>
    </Jss(Box)>
  </Jss(Container)>
</div>
`;
