// Jest Snapshot v1, https://goo.gl/fbAQLP

exports[`<Link /> render() renders the component correctly 1`] = `
<Link
  className="Link-link-0-1-1"
  replace={false}
  style={
    Object {
      "color": "#1E2441",
    }
  }
  to="/auth"
>
  Test
</Link>
`;
